<?xml version="1.0" encoding="UTF-8" standalone="no"?>
<!-- Created with Inkscape (http://www.inkscape.org/) -->

<svg
   id="svg2"
   sodipodi:version="0.32"
   inkscape:version="1.2.2 (b0a8486541, 2022-12-01)"
   width="22"
   height="20"
   version="1.0"
   sodipodi:docname="text.svg"
   inkscape:output_extension="org.inkscape.output.svg.inkscape"
   inkscape:export-filename="/home/doctormo/Desktop/small-pd.png"
   inkscape:export-xdpi="90"
   inkscape:export-ydpi="90"
   xmlns:inkscape="http://www.inkscape.org/namespaces/inkscape"
   xmlns:sodipodi="http://sodipodi.sourceforge.net/DTD/sodipodi-0.dtd"
   xmlns="http://www.w3.org/2000/svg"
   xmlns:svg="http://www.w3.org/2000/svg"
   xmlns:rdf="http://www.w3.org/1999/02/22-rdf-syntax-ns#"
   xmlns:cc="http://creativecommons.org/ns#"
   xmlns:dc="http://purl.org/dc/elements/1.1/">
  <metadata
     id="metadata7">
    <rdf:RDF>
      <cc:Work
         rdf:about="">
        <dc:format>image/svg+xml</dc:format>
        <dc:type
           rdf:resource="http://purl.org/dc/dcmitype/StillImage" />
      </cc:Work>
    </rdf:RDF>
  </metadata>
  <defs
     id="defs5">
    <foreignObject
       requiredExtensions="http://ns.adobe.com/AdobeIllustrator/10.0/"
       x="0"
       y="0"
       width="1"
       height="1"
       id="foreignObject8" />
  </defs>
  <sodipodi:namedview
     inkscape:window-height="707"
     inkscape:window-width="1366"
     inkscape:pageshadow="2"
     inkscape:pageopacity="0"
     guidetolerance="10.0"
     gridtolerance="10.0"
     objecttolerance="10.0"
     borderopacity="1.0"
     bordercolor="#666666"
     pagecolor="#ffd7d7"
     id="base"
     showgrid="false"
     inkscape:zoom="5.657"
     inkscape:cx="17.588828"
     inkscape:cy="3.712215"
     inkscape:window-x="0"
     inkscape:window-y="0"
     inkscape:current-layer="svg2"
     inkscape:window-maximized="1"
     showguides="false"
     inkscape:snap-global="true"
     fit-margin-top="0"
     fit-margin-left="0"
     fit-margin-right="0"
     fit-margin-bottom="0"
     inkscape:snap-bbox="false"
     inkscape:snap-page="true"
     inkscape:snap-grids="false"
     inkscape:snap-to-guides="false"
     inkscape:snap-nodes="false"
     inkscape:snap-others="false"
     inkscape:showpageshadow="2"
     inkscape:pagecheckerboard="0"
     inkscape:deskcolor="#d1d1d1" />
  <path
     d="m 13.559885,15.890486 q -0.12508,0 -0.391918,0 -0.275176,0 -0.583708,0 -0.308531,0 -0.57537,0 -0.275176,0 -0.400256,0 h -1.033997 q -0.12508,0 -0.400257,0 -0.2668371,0 -0.5753686,0 -0.2918539,0 -0.5670312,0 -0.2668376,0 -0.3919181,0 v -0.08384 l 0.083388,-0.326977 0.091726,-0.08384 q 0.2835152,0 0.650417,0 0.3585632,0 0.5086599,-0.159297 0.141757,-0.125761 0.308531,-0.326977 0.158435,-0.201217 0.200129,-0.712644 0,-0.125761 0,-0.293441 0,-0.184449 0,-0.43597 0,-0.251521 0,-0.620419 0,-0.360514 0,-0.905477 V 8.2417272 q 0,-1.1838262 0,-2.0943327 0,-0.9289514 0,-1.4026496 h -0.20013 q -0.9089162,0 -1.4842853,0.016768 -0.5837078,0 -0.9422718,0.033536 Q 7.5060005,4.8118178 7.3308874,4.8537375 7.164114,4.887274 7.089066,4.9442851 6.6971479,5.1631085 6.6054226,5.8916814 L 6.522035,5.9671375 H 6.1051006 l 0.1250796,-2.076307 0.083388,-0.1639079 0.108403,-0.054496 q 0.1417571,0.054496 0.6337393,0.109244 0.4919824,0.036052 1.0673515,0.054496 0.5837087,0.018444 1.1090452,0.036052 0.5420149,0 0.7754978,0 h 2.2848 q 0.233482,0 0.75882,0 0.542015,-0.018444 1.125722,-0.036052 0.575369,-0.018444 1.067352,-0.054496 0.483643,-0.054496 0.63374,-0.109244 l 0.108403,0.054496 0.08339,0.1639079 0.141757,2.076307 h -0.433611 l -0.08339,-0.075456 q -0.158434,-0.7277346 -0.558691,-0.946558 -0.06671,-0.054496 -0.25016,-0.090548 -0.158436,-0.03689 -0.525338,-0.054496 -0.341886,-0.03689 -0.925594,-0.03689 -0.575369,-0.018445 -1.467608,-0.018445 h -0.200129 q 0,0.5281944 0,1.3842047 0,0.8560103 0,2.0943327 v 3.3511008 q 0,0.652278 0,1.071479 0,0.402434 0,0.679108 0,0.268289 0,0.469506 0,0.184449 0.08339,0.402434 0,0.511426 0.200128,0.712643 0.158435,0.201217 0.300193,0.326978 0.150097,0.12576 0.50866,0.159296 0.366902,0 0.650417,0 l 0.09172,0.08384 0.08339,0.326978 -0.08339,0.08384 z"
     id="path4241"
     inkscape:connector-curvature="0"
     style="font-size:21.7209px;font-family:Quattrocento;-inkscape-font-specification:Quattrocento;letter-spacing:0px;word-spacing:0px;stroke-width:0.836133px" />
</svg>
