<?xml version="1.0" encoding="UTF-8" standalone="no"?>
<svg
   version="1.0"
   height="20.07403"
   width="42.427174"
   id="svg2"
   inkscape:version="1.2.2 (b0a8486541, 2022-12-01)"
   sodipodi:docname="asl.svg"
   xmlns:inkscape="http://www.inkscape.org/namespaces/inkscape"
   xmlns:sodipodi="http://sodipodi.sourceforge.net/DTD/sodipodi-0.dtd"
   xmlns="http://www.w3.org/2000/svg"
   xmlns:svg="http://www.w3.org/2000/svg"
   xmlns:rdf="http://www.w3.org/1999/02/22-rdf-syntax-ns#"
   xmlns:cc="http://creativecommons.org/ns#"
   xmlns:dc="http://purl.org/dc/elements/1.1/">
  <path
     id="path6416"
     style="font-weight:bold;font-size:17.8474px;line-height:1.25;-inkscape-font-specification:'sans-serif Bold';letter-spacing:0px;word-spacing:0px;baseline-shift:baseline;stroke-width:1.58507px;marker:none;marker-start:none;marker-mid:none;marker-end:none"
     d="m 22.99679,3.4872102 c -1.332604,0 -2.384816,0.322338 -3.158203,0.9648437 -0.773386,0.6306075 -1.160156,1.5159706 -1.160156,2.6582031 0,0.5830145 0.100464,1.0835611 0.302734,1.5 0.202271,0.416439 0.458223,0.7728562 0.767578,1.0703126 0.321253,0.2855582 0.654951,0.5301514 1,0.7324224 0.34505,0.190372 0.667388,0.355268 0.964844,0.498047 0.47593,0.226067 0.896779,0.440307 1.265625,0.642578 0.368846,0.190371 0.660832,0.398933 0.875,0.625 0.226067,0.226066 0.339844,0.501012 0.339844,0.822265 0,0.392643 -0.14413,0.718707 -0.429688,0.980469 -0.273659,0.249864 -0.7419,0.375 -1.408203,0.375 -0.642505,0 -1.292861,-0.106143 -1.947265,-0.320312 -0.642506,-0.226067 -1.266236,-0.470661 -1.873047,-0.732422 v 2.515625 c 1.058945,0.511624 2.260966,0.767578 3.605468,0.767578 1.499181,0 2.65381,-0.331744 3.462891,-0.998047 0.82098,-0.678201 1.230469,-1.582557 1.230469,-2.712891 0,-0.666302 -0.125136,-1.225601 -0.375,-1.677734 -0.249863,-0.452134 -0.60628,-0.844583 -1.070313,-1.177735 C 24.937235,9.6872624 24.383616,9.3649242 23.729212,9.0555696 22.932029,8.6748254 22.331018,8.3544406 21.926478,8.0926789 21.521937,7.8309173 21.321009,7.472547 21.321009,7.0204133 c 0,-0.3807442 0.136497,-0.6897693 0.410156,-0.9277344 0.27366,-0.2379651 0.666109,-0.3574219 1.177735,-0.3574219 0.487828,1e-7 0.963702,0.066385 1.427734,0.1972657 0.464032,0.1308808 0.987298,0.3147693 1.570313,0.5527343 l 0.875,-2.1054687 C 26.127542,4.0942302 25.496179,3.8743094 24.889368,3.719632 24.294456,3.5649547 23.663092,3.4872102 22.99679,3.4872102 Z M 9.8971809,3.6122102 5.4010871,16.409085 H 8.3092902 L 9.2370246,13.375882 H 13.87765 l 0.927734,3.033203 H 17.71554 L 13.199915,3.6122102 Z M 29.154993,3.6668977 V 16.409085 h 7.871094 V 14.178617 H 31.850306 V 3.6668977 Z M 11.557337,5.5926789 c 0.05949,0.2379652 0.137236,0.5185909 0.232422,0.8398438 0.09519,0.3212529 0.189971,0.6359579 0.285157,0.9453125 0.09519,0.3093546 0.17293,0.5653078 0.232421,0.7675781 l 0.927734,2.9628907 H 9.914759 l 0.910157,-2.9628907 c 0.04759,-0.1308808 0.113977,-0.3508016 0.197265,-0.6601563 0.09519,-0.3212528 0.18997,-0.6549506 0.285156,-1 0.107085,-0.3569476 0.190509,-0.6546129 0.25,-0.8925781 z" />
  <sodipodi:namedview
     pagecolor="#ffffff"
     bordercolor="#666666"
     borderopacity="1"
     objecttolerance="10"
     gridtolerance="10"
     guidetolerance="10"
     inkscape:pageopacity="0"
     inkscape:pageshadow="2"
     inkscape:window-width="1920"
     inkscape:window-height="1011"
     id="namedview25"
     showgrid="false"
     inkscape:zoom="7.0473702"
     inkscape:cx="-1.8446597"
     inkscape:cy="9.6489893"
     inkscape:current-layer="svg2"
     inkscape:showpageshadow="2"
     inkscape:pagecheckerboard="0"
     inkscape:deskcolor="#d1d1d1"
     inkscape:window-x="0"
     inkscape:window-y="0"
     inkscape:window-maximized="1" />
  <metadata
     id="metadata7">
    <rdf:RDF>
      <cc:Work
         rdf:about="">
        <dc:format>image/svg+xml</dc:format>
        <dc:type
           rdf:resource="http://purl.org/dc/dcmitype/StillImage" />
      </cc:Work>
    </rdf:RDF>
  </metadata>
  <defs
     id="defs5">
    <foreignObject
       id="foreignObject8"
       height="1"
       width="1"
       y="0"
       x="0"
       requiredExtensions="http://ns.adobe.com/AdobeIllustrator/10.0/" />
  </defs>
</svg>
