<?xml version="1.0" encoding="UTF-8" standalone="no"?>
<!-- Created with Inkscape (http://www.inkscape.org/) -->

<svg
   id="svg2"
   sodipodi:version="0.32"
   inkscape:version="1.2.2 (b0a8486541, 2022-12-01)"
   width="20"
   height="20"
   version="1.0"
   sodipodi:docname="cc-by-nc.svg"
   inkscape:output_extension="org.inkscape.output.svg.inkscape"
   inkscape:export-filename="/home/doctormo/Desktop/small-pd.png"
   inkscape:export-xdpi="90"
   inkscape:export-ydpi="90"
   xmlns:inkscape="http://www.inkscape.org/namespaces/inkscape"
   xmlns:sodipodi="http://sodipodi.sourceforge.net/DTD/sodipodi-0.dtd"
   xmlns="http://www.w3.org/2000/svg"
   xmlns:svg="http://www.w3.org/2000/svg"
   xmlns:rdf="http://www.w3.org/1999/02/22-rdf-syntax-ns#"
   xmlns:cc="http://creativecommons.org/ns#"
   xmlns:dc="http://purl.org/dc/elements/1.1/">
  <metadata
     id="metadata7">
    <rdf:RDF>
      <cc:Work
         rdf:about="">
        <dc:format>image/svg+xml</dc:format>
        <dc:type
           rdf:resource="http://purl.org/dc/dcmitype/StillImage" />
      </cc:Work>
    </rdf:RDF>
  </metadata>
  <defs
     id="defs5">
    <foreignObject
       requiredExtensions="http://ns.adobe.com/AdobeIllustrator/10.0/"
       x="0"
       y="0"
       width="1"
       height="1"
       id="foreignObject8" />
  </defs>
  <sodipodi:namedview
     inkscape:window-height="1011"
     inkscape:window-width="1920"
     inkscape:pageshadow="2"
     inkscape:pageopacity="0"
     guidetolerance="10.0"
     gridtolerance="10.0"
     objecttolerance="10.0"
     borderopacity="1.0"
     bordercolor="#666666"
     pagecolor="#ffd7d7"
     id="base"
     showgrid="false"
     inkscape:zoom="24.93"
     inkscape:cx="9.9077417"
     inkscape:cy="6.6586442"
     inkscape:window-x="0"
     inkscape:window-y="0"
     inkscape:current-layer="svg2"
     inkscape:window-maximized="1"
     showguides="false"
     inkscape:snap-global="true"
     fit-margin-top="0"
     fit-margin-left="0"
     fit-margin-right="0"
     fit-margin-bottom="0"
     inkscape:snap-bbox="false"
     inkscape:snap-page="true"
     inkscape:snap-grids="false"
     inkscape:snap-to-guides="false"
     inkscape:snap-nodes="false"
     inkscape:snap-others="false"
     inkscape:showpageshadow="2"
     inkscape:pagecheckerboard="0"
     inkscape:deskcolor="#d1d1d1" />
  <ellipse
     style="fill:#ffffff;stroke-width:5.7234;stroke-linecap:round;stroke-linejoin:round;stroke-miterlimit:20;paint-order:markers stroke fill;stop-color:#000000"
     id="path7436"
     cx="10"
     cy="10"
     rx="6.9866719"
     ry="7.1174345" />
  <g
     style="font-weight:bold;font-size:14.585px;font-family:'Trebuchet MS';-inkscape-font-specification:'Trebuchet MS Bold';letter-spacing:0px;word-spacing:0px;text-anchor:end;fill:#b00808"
     id="text6606"
     transform="translate(-29.55,-1.488)" />
  <path
     id="path4394"
     style="color:#000000;fill:#b00808;stroke-width:0.791516;stroke-linecap:round;-inkscape-stroke:none"
     d="m 10,3.4475749 c -3.6139473,0 -6.5516521,2.9377041 -6.5516521,6.551653 1e-7,3.6139471 2.9377048,6.5531971 6.5516521,6.5531971 3.613948,0 6.551652,-2.93925 6.551652,-6.5531972 0,-3.6139488 -2.937704,-6.551653 -6.551652,-6.5516529 z m 0,0.7915162 c 3.186225,0 5.760136,2.5739113 5.760136,5.7601368 0,3.1862251 -2.573911,5.7616821 -5.760136,5.7616821 -3.1862243,0 -5.7601358,-2.575457 -5.7601358,-5.7616821 C 4.2398643,6.8130024 6.8137757,4.2390912 10,4.2390911 Z M 9.5532267,5.6675307 v 1.0713297 c -0.480925,0.058405 -0.857451,0.2242686 -1.136259,0.4993355 -0.353966,0.3492166 -0.510157,0.8295885 -0.510157,1.4145263 0,0.5762075 0.0583,0.7952274 0.420493,1.1269832 0.288111,0.2619126 1.027699,0.6276326 2.0978263,0.9244666 0.214026,0.06111 0.387645,0.245071 0.469963,0.332375 0.09878,0.07857 0.09894,0.192143 0.09894,0.323099 0,0.2008 -0.04097,0.497603 -0.205609,0.593637 -0.460979,0.279374 -1.8114983,0.235834 -2.2477813,-0.418947 l -0.856446,0.837895 c 0.263203,0.502464 1.089872,0.814532 1.86903,0.919828 v 1.045049 h 0.6910303 v -1.007947 c 0.642105,-0.03222 1.09366,-0.316635 1.465541,-0.686393 0.403357,-0.392869 0.601368,-0.89097 0.601368,-1.493368 0,-0.497634 -0.131299,-0.898716 -0.386483,-1.20428 C 11.669498,9.6482857 11.174763,9.3863225 10.442136,9.1767926 9.7918277,8.9934538 9.4715957,8.8538801 9.3398887,8.7578454 c -0.09878,-0.087304 -0.18242,-0.2004181 -0.18242,-0.3401046 0,-0.1571476 0.06721,-0.2790813 0.207155,-0.3663855 0.131707,-0.061113 0.295787,-0.1484093 0.616825,-0.1484093 0.5103693,0 0.8236103,0.033718 1.2351983,0.400396 l 0.7405,-0.8456241 C 11.574022,6.976136 10.848462,6.7732962 10.244257,6.7264929 V 5.6675307 Z" />
  <g
     id="g5280"
     transform="matrix(1.04,0,0,1.103,-66.6,46.42)"
     style="fill:#b00808" />
</svg>
