<?xml version="1.0" encoding="UTF-8" standalone="no"?>
<!-- Created with Inkscape (http://www.inkscape.org/) -->

<svg
   id="svg2"
   sodipodi:version="0.32"
   inkscape:version="1.2.2 (b0a8486541, 2022-12-01)"
   width="20"
   height="20"
   version="1.0"
   sodipodi:docname="cc-by-sa.svg"
   inkscape:output_extension="org.inkscape.output.svg.inkscape"
   inkscape:export-filename="/home/doctormo/Desktop/small-pd.png"
   inkscape:export-xdpi="90"
   inkscape:export-ydpi="90"
   xmlns:inkscape="http://www.inkscape.org/namespaces/inkscape"
   xmlns:sodipodi="http://sodipodi.sourceforge.net/DTD/sodipodi-0.dtd"
   xmlns="http://www.w3.org/2000/svg"
   xmlns:svg="http://www.w3.org/2000/svg"
   xmlns:rdf="http://www.w3.org/1999/02/22-rdf-syntax-ns#"
   xmlns:cc="http://creativecommons.org/ns#"
   xmlns:dc="http://purl.org/dc/elements/1.1/">
  <metadata
     id="metadata7">
    <rdf:RDF>
      <cc:Work
         rdf:about="">
        <dc:format>image/svg+xml</dc:format>
        <dc:type
           rdf:resource="http://purl.org/dc/dcmitype/StillImage" />
      </cc:Work>
    </rdf:RDF>
  </metadata>
  <defs
     id="defs5">
    <foreignObject
       requiredExtensions="http://ns.adobe.com/AdobeIllustrator/10.0/"
       x="0"
       y="0"
       width="1"
       height="1"
       id="foreignObject8" />
  </defs>
  <sodipodi:namedview
     inkscape:window-height="1011"
     inkscape:window-width="1920"
     inkscape:pageshadow="2"
     inkscape:pageopacity="0"
     guidetolerance="10.0"
     gridtolerance="10.0"
     objecttolerance="10.0"
     borderopacity="1.0"
     bordercolor="#666666"
     pagecolor="#ffd7d7"
     id="base"
     showgrid="false"
     inkscape:zoom="10.18"
     inkscape:cx="15.324165"
     inkscape:cy="6.4833006"
     inkscape:window-x="0"
     inkscape:window-y="0"
     inkscape:current-layer="g8643"
     inkscape:window-maximized="1"
     showguides="false"
     inkscape:snap-global="true"
     fit-margin-top="0"
     fit-margin-left="0"
     fit-margin-right="0"
     fit-margin-bottom="0"
     inkscape:snap-bbox="false"
     inkscape:snap-page="true"
     inkscape:snap-grids="false"
     inkscape:snap-to-guides="false"
     inkscape:snap-nodes="false"
     inkscape:snap-others="false"
     inkscape:showpageshadow="2"
     inkscape:pagecheckerboard="0"
     inkscape:deskcolor="#d1d1d1" />
  <g
     id="g8643"
     transform="translate(3.175,-19.57)">
    <ellipse
       style="opacity:1;fill:#ffffff;fill-opacity:1;stroke-width:6.09259;stroke-linecap:round;stroke-linejoin:round;stroke-miterlimit:20;paint-order:markers stroke fill;stop-color:#000000"
       id="path538"
       cx="6.8249998"
       cy="29.57"
       rx="8.1247225"
       ry="7.9769926" />
    <path
       style="color:#000000;fill:#47b926;stroke-width:0.830722;stroke-linecap:round;-inkscape-stroke:none"
       d="m 6.8423149,22.699656 c 3.7929591,0 6.8761711,3.084834 6.8761711,6.877793 0,3.79296 -3.083212,6.876171 -6.8761711,6.876171 -3.7929596,0 -6.87617103,-3.083211 -6.87617103,-6.876171 0,-3.792959 3.08321143,-6.877793 6.87617103,-6.877793 z m 0,0.830722 c -3.3440495,0 -6.04707167,2.703022 -6.04707167,6.047071 0,3.344049 2.70302227,6.045449 6.04707167,6.045449 3.3440481,0 6.0454491,-2.7014 6.0454491,-6.045449 0,-3.344049 -2.701401,-6.047071 -6.0454491,-6.047071 z"
       id="circle7362" />
    <path
       inkscape:connector-curvature="0"
       id="path2371"
       style="fill:#47b926;stroke-width:0.830722"
       d="M 4.1039955,28.579804 H 3.5224903 l 1.24276,1.329155 1.2460826,-1.329155 H 5.595972 c 0.083072,-0.664577 0.6645779,-1.079938 1.3291549,-1.079938 0,0 0.08307,0 0.08307,0 1.1630111,0 1.5866791,0.830722 1.5866791,2.076804 0,1.329155 -0.6728851,2.159877 -1.5866791,2.076805 -0.913794,0 -1.2460825,-0.415361 -1.4122269,-1.079938 H 3.9378513 c 0.3322886,1.495299 1.4089043,2.409093 3.0703476,2.409093 1.8358961,0 3.1650511,-1.495299 3.1650511,-3.40596 0,-1.993732 -1.329155,-3.405959 -3.1650511,-3.405959 -0.08307,0 -0.166144,0 -0.166144,0 0,0 0,0 -0.08307,0 -1.1630109,0.08307 -2.6549874,0.830722 -2.6549874,2.409093 z" />
  </g>
</svg>
