[
{
  "fields": {
    "verified": false,
    "license": 1,
    "tags": [],
    "signature": null,
    "owner": true,
    "mirror": false,
    "download": "test/file1.svg",
    "category": 1,
    "user": 3,
    "name": "Resource One",
    "slug": "resource-one",
    "desc": "Big description for Resource One",
    "created": "2015-04-04T16:42:41.433Z",
    "edited": "2015-04-20T16:42:41.417Z",
    "published": true,
    "viewed": 1,
    "liked": 10,
    "downed": 0,
    "fullview": 0,
    "tags": [],
    "media_type": "image/svg+xml",
    "media_x": 100,
    "media_y": 100,
    "thumbnail": "",
    "link": ""
  },
  "model": "resources.resource",
  "pk": 1
},
{
  "fields": {
    "verified": false,
    "license": 1,
    "tags": [],
    "signature": null,
    "owner": true,
    "mirror": false,
    "download": "test/file2.txt",
    "category": 2,
    "user": 3,
    "name": "Resource Two",
    "slug": "resource-two",
    "desc": "Big description for Resource Two[[...]]And Some More",
    "created": "2015-04-03T16:42:41.433Z",
    "edited": "2015-04-21T16:42:41.417Z",
    "published": false,
    "viewed": 0,
    "liked": 123,
    "downed": 0,
    "fullview": 0,
    "tags": [],
    "media_type": "text/plain",
    "media_x": 150,
    "media_y": 150,
    "thumbnail": "",
    "link": "http://link.com/"
  },
  "model": "resources.resource",
  "pk": 2
},
{
  "fields": {
    "verified": false,
    "license": 2,
    "tags": [],
    "signature": null,
    "owner": true,
    "mirror": false,
    "download": "test/file3.svg",
    "category": 4,
    "user": 1,
    "name": "Resource Three",
    "slug": "resource-three",
    "desc": "Big description for Resource Three",
    "created": "2015-04-14T16:42:41.433Z",
    "edited": "2015-04-30T16:42:41.417Z",
    "published": true,
    "viewed": 0,
    "liked": 11,
    "downed": 0,
    "fullview": 0,
    "tags": [],
    "media_type": "application/x-pdf",
    "media_x": 1000,
    "media_y": 1000,
    "thumbnail": "test/preview3.png",
    "link": ""
  },
  "model": "resources.resource",
  "pk": 3
},
{
  "fields": {
    "verified": false,
    "license": 2,
    "tags": [],
    "signature": null,
    "owner": true,
    "mirror": false,
    "download": "test/file4.svg",
    "category": 4,
    "user": 2,
    "name": "Resource Four",
    "slug": "resource-four",
    "desc": "Big description for Resource Four",
    "created": "2015-04-05T16:42:41.433Z",
    "edited": "2015-04-21T16:42:41.417Z",
    "published": true,
    "viewed": 432,
    "liked": 0,
    "downed": 567,
    "fullview": 100,
    "media_type": "image/xml+svg",
    "media_x": 0,
    "media_y": 0,
    "thumbnail": "test/preview4.jpg",
    "link": "http://google.com/"
  },
  "model": "resources.resource",
  "pk": 4
},
{
  "fields": {
    "verified": false,
    "license": 2,
    "tags": [],
    "signature": null,
    "owner": true,
    "mirror": false,
    "download": "test/file5.svg",
    "category": 4,
    "user": 2,
    "name": "Unpublished Test",
    "slug": "unpublished-test",
    "desc": "Big description for Resource Five",
    "created": "2015-04-05T16:42:41.433Z",
    "edited": "2015-04-21T16:42:41.417Z",
    "published": false,
    "viewed": 432,
    "liked": 321,
    "downed": 567,
    "fullview": 0,
    "media_type": "text/plain",
    "media_x": 0,
    "media_y": 0,
    "thumbnail": "test/preview4.jpg",
    "link": "http://google.com/"
  },
  "model": "resources.resource",
  "pk": 5
},
{
  "fields": {
    "verified": false,
    "license": 3,
    "tags": [],
    "signature": null,
    "owner": true,
    "mirror": false,
    "download": "test/file2.txt",
    "category": 2,
    "user": 1,
    "name": "Resource Six",
    "slug": "resource-six",
    "desc": "Text for Resource Six[[...]]And Some More and searchterm1",
    "created": "2015-04-03T16:42:41.433Z",
    "edited": "2015-04-21T16:42:41.417Z",
    "published": true,
    "viewed": 1,
    "liked": 123,
    "downed": 0,
    "fullview": 0,
    "tags": [],
    "media_type": "text/plain",
    "media_x": 1,
    "media_y": 5,
    "thumbnail": "",
    "link": "http://link.com/"
  },
  "model": "resources.resource",
  "pk": 6
},
{
  "fields": {
    "verified": false,
    "license": 3,
    "tags": [],
    "signature": "test/good.md5",
    "owner": true,
    "mirror": false,
    "download": "test/preview5.png",
    "category": 3,
    "user": 2,
    "name": "Resource Seven",
    "slug": "resource-seven",
    "desc": "Big description for Resource Seven[[...]]And Some More and searchterm1",
    "created": "2015-04-04T16:42:41.433Z",
    "edited": "2015-04-25T16:42:41.417Z",
    "published": true,
    "viewed": 19,
    "liked": 23,
    "downed": 5,
    "fullview": 8,
    "tags": [],
    "media_type": "image/png",
    "media_x": 100,
    "media_y": 500,
    "thumbnail": "",
    "link": "https://www.youtube.com/watch?v=VideoTag012"
  },
  "model": "resources.resource",
  "pk": 7
},
{
  "fields": {
    "verified": false,
    "license": 4,
    "tags": [],
    "signature": "test/bad.sig",
    "owner": true,
    "mirror": false,
    "download": "test/file2.txt",
    "category": 5,
    "user": 3,
    "name": "Item Eight",
    "slug": "item-eight",
    "desc": "Big description for Item Eight[[...]]And Some More and searchterm1",
    "created": "2015-05-04T16:42:41.433Z",
    "edited": "2015-05-25T16:42:41.417Z",
    "published": true,
    "viewed": 10,
    "liked": 12,
    "downed": 9,
    "fullview": 2,
    "tags": [],
    "media_type": "text/xml+svg",
    "media_x": 10,
    "media_y": 50,
    "thumbnail": "",
    "link": "http://vimeo.com/VideoTag"
  },
  "model": "resources.resource",
  "pk": 8
},
{
  "fields": {
    "verified": false,
    "license": 1,
    "tags": [],
    "signature": "test/good.sig",
    "owner": false,
    "mirror": false,
    "download": "test/file1.svg",
    "category": 5,
    "user": 2,
    "name": "Resource Nine",
    "slug": "resource-nine",
    "desc": "Big description for Resource Nine[[...]]And Some More and searchterm2",
    "created": "2015-04-08T16:42:41.433Z",
    "edited": "2015-04-15T16:42:41.417Z",
    "published": true,
    "viewed": 14,
    "liked": 13,
    "downed": 499,
    "fullview": 345,
    "tags": [],
    "media_type": "plastic/man",
    "media_x": 200,
    "media_y": 300,
    "thumbnail": "",
    "link": "http://linkforpicture.com/"
  },
  "model": "resources.resource",
  "pk": 9
},
{
  "fields": {
    "verified": false,
    "license": 1,
    "tags": [],
    "signature": null,
    "owner": true,
    "mirror": false,
    "download": "test/file1.svg",
    "category": 4,
    "user": 3,
    "name": "Resource Ten",
    "slug": "resource-ten",
    "desc": "Big description for Resource Ten",
    "created": "2015-04-04T16:42:41.433Z",
    "edited": "2015-04-20T16:42:41.417Z",
    "published": true,
    "viewed": 1,
    "liked": 145,
    "downed": 0,
    "fullview": 0,
    "tags": [],
    "media_type": "image/svg+xml",
    "media_x": 100,
    "media_y": 100,
    "thumbnail": "",
    "link": ""
  },
  "model": "resources.resource",
  "pk": 10
},
{
  "fields": {
    "verified": false,
    "license": 1,
    "tags": [],
    "signature": "test/good.sig",
    "owner": false,
    "mirror": false,
    "download": "test/file1.svg",
    "category": 3,
    "user": 3,
    "name": "Resource Eleven",
    "slug": "resource-eleven",
    "desc": "RE11",
    "created": "2015-04-08T16:42:41.433Z",
    "edited": "2015-04-15T16:42:41.417Z",
    "published": true,
    "viewed": 22,
    "liked": 13,
    "downed": 499,
    "fullview": 345,
    "tags": [],
    "media_type": "plastic/woman",
    "media_x": 200,
    "media_y": 300,
    "thumbnail": "",
    "link": "http://linkforpicture.com/"
  },
  "model": "resources.resource",
  "pk": 11
},
{
  "fields": {
    "user": 3,
    "name": "Gallery by User Three",
    "created": "2015-04-04T16:42:41.433Z",
    "slug": "gallery-one"
  },
  "model": "resources.gallery",
  "pk": 1
},
{
  "fields": {
    "user": 2,
    "name": "Gallery by User Two",
    "created": "2015-04-04T16:42:41.433Z",
    "slug": "gallery-two"
  },
  "model": "resources.gallery",
  "pk": 2
},
{
  "fields": {
    "user": 2,
    "group": 2,
    "name": "Gallery Three for Group",
    "created": "2015-04-04T16:42:41.433Z",
    "slug": "gallery-group"
  },
  "model": "resources.gallery",
  "pk": 3
},
{
  "fields": {
    "user": 3,
    "name": "Another Gallery by User Three",
    "created": "2015-04-04T16:42:41.433Z",
    "slug": "gallery-four"
  },
  "model": "resources.gallery",
  "pk": 4
},
{
  "fields": {
    "user": 2,
    "group": 1,
    "name": "Gallery Five for Group Test",
    "created": "2015-04-04T16:42:41.433Z",
    "slug": "gallery-five-group"
  },
  "model": "resources.gallery",
  "pk": 5
},
{
  "fields": {
    "user": 2,
    "group": 2,
    "name": "Gallery Six for Group Two",
    "created": "2015-04-04T16:42:41.433Z",
    "slug": "gallery-six-group"
  },
  "model": "resources.gallery",
  "pk": 6
},
{
  "fields": {
    "user": 3,
    "group": 2,
    "name": "A Group Gallery for Group Two by User Three",
    "created": "2015-04-04T16:42:41.433Z",
    "slug": "gallery-seven"
  },
  "model": "resources.gallery",
  "pk": 7
},
{
  "fields": {
    "user": 2,
    "group": 1,
    "name": "Gallery Eight for Group Test",
    "created": "2015-04-04T16:42:41.433Z",
    "slug": "gallery-eight-group"
  },
  "model": "resources.gallery",
  "pk": 8
},
{
  "fields": {
    "user": 1,
    "name": "Gallery for User Admin",
    "created": "2015-04-04T16:42:41.433Z",
    "slug": "gallery-belonging-to-admin"
  },
  "model": "resources.gallery",
  "pk": 9
}
]
